{
    "version": "1.0.0",
    "date": "01-06-2023",
    "checkdate": "01-06-2023",
    "desc": "This is a Scene Management Package for Runtime",
    "homepage": "https://gitlab.com/UnityPackage/SceneManagement"
}